<?xml version="1.0" standalone="no"?>
<!DOCTYPE svg PUBLIC "-//W3C//DTD SVG 1.1//EN" "http://www.w3.org/Graphics/SVG/1.1/DTD/svg11.dtd">
<svg xmlns="http://www.w3.org/2000/svg"><defs><font id="flaticon" horiz-adv-x="512"><font-face units-per-em="512" ascent="448" descent="-64" x-height="240" cap-height="480"/><missing-glyph horiz-adv-x="512"/><glyph unicode="&#xE000;" glyph-name="call37" horiz-adv-x="512" d="M215.79126797386 166.8417254902c0 -14.519215686275 -11.769307189542 -26.289359477124 -26.288522875817 -26.289359477124c-14.518379084967 0 -26.28768627451 11.769307189542 -26.28768627451 26.289359477124 c0 14.518379084967 11.769307189542 26.288522875817 26.28768627451 26.288522875817C204.02196078431 193.12941176471 215.79126797386 181.35926797386 215.79126797386 166.8417254902zM322.49725490196 193.12941176471 c-14.518379084967 0 -26.288522875817 -11.769307189542 -26.288522875817 -26.289359477124c0 -14.518379084967 11.77014379085 -26.28768627451 26.288522875817 -26.28768627451c14.518379084967 0 26.289359477124 11.769307189542 26.289359477124 26.28768627451 C348.78577777778 181.35926797386 337.01647058824 193.12941176471 322.49725490196 193.12941176471zM512 181.49479738562v-49.960993464052c0 -25.082980392157 -20.333594771242 -45.416575163399 -45.417411764706 -45.416575163399h-32.957071895425 C400.96878431373 -4.5569673202614 317.57720261438 -59.325071895425 256 -59.325071895425s-144.96878431373 54.768104575163 -177.62551633987 145.4431372549H45.417411764706C20.333594771242 86.118065359477 0 106.45082352941 0 131.53464052288v49.960993464052 c0 17.259921568627 9.6301176470588 32.270222222222 23.809673202614 39.954405228758c0.47602614379085 70.931241830065 21.149281045752 126.32847058824 61.534535947712 164.62556862745C125.40235294118 424.06232679739 182.8191372549 443.32507189542 256 443.32507189542 c73.180862745098 0 130.59764705882 -19.262745098039 170.65579084967 -57.24862745098c40.384418300654 -38.297098039216 61.056836601307 -93.695163398693 61.534535947712 -164.62556862745C502.36988235294 213.76585620915 512 198.75555555556 512 181.49479738562zM415.87367320261 166.67524183007c0 11.686483660131 -0.59816993464052 22.666875816993 -1.4816209150327 33.30677124183c-20.156235294118 18.441202614379 -56.748339869281 32.434196078431 -102.92956862745 37.633673202614 c6.0636862745098 -6.8183006535948 11.301647058824 -15.787503267974 14.478222222222 -27.593620915033c-28.287163398693 22.284549019608 -83.811555555556 16.980496732026 -125.80977777778 66.84862745098c-2.4077385620915 2.785045751634 -4.4900392156863 5.4462745098039 -6.2904052287582 7.8782745098039 c-0.020915032679739 0.029281045751634 -0.044339869281046 0.051869281045752 -0.065254901960784 0.080313725490196l0.0050196078431373 -0.0016732026143791c-7.4716862745098 10.104470588235 -10.019137254902 16.114614379085 -10.161359477124 9.4619607843137 c-1.2323137254902 -57.318065359477 -41.858509803922 -102.00261437908 -86.97139869281 -108.30640522876c-0.28528104575163 -6.3037908496732 -0.51869281045752 -12.668653594771 -0.51869281045752 -19.308758169935c0 -24.227137254902 3.9562875816993 -46.307555555556 10.682562091503 -66.206117647059 c25.340653594771 -30.566901960784 67.189124183007 -39.198117647059 104.22881045752 -41.487058823529c6.8760261437908 10.93939869281 22.303790849673 18.576732026144 40.270640522876 18.576732026144c24.359320261438 0 44.105620915033 -14.016418300654 44.105620915033 -31.308967320261 c0 -17.290875816993 -19.747137254902 -31.307294117647 -44.105620915033 -31.307294117647c-18.737359477124 0 -34.704732026144 8.3074509803922 -41.095529411765 20.004810457516c-25.886954248366 1.505045751634 -54.344784313725 5.9181176470588 -79.708026143791 17.895738562092 C166.17495424837 0.2677124183007 221.46928104575 -27.532549019608 256 -27.532549019608C310.26112418301 -27.532549019608 415.87367320261 41.014379084967 415.87367320261 166.67524183007zM460.8460130719 226.91220915033 C457.95555555556 350.68820915033 387.30541176471 416.07362091503 256 416.07362091503S54.045281045752 350.68820915033 51.153986928105 226.91220915033h17.474091503268c6.3891241830065 41.718797385621 19.892705882353 76.028653594771 40.395294117647 102.41003921569 C141.69516339869 371.35979084967 191.14499346405 392.67555555556 256 392.67555555556c64.855006535948 0 114.30483660131 -21.315764705882 146.97830065359 -63.353307189542c20.50091503268 -26.380549019608 34.005333333333 -60.691241830065 40.39445751634 -102.41003921569 H460.8460130719L460.8460130719 226.91220915033z"/><glyph unicode="&#xE001;" glyph-name="checked21" horiz-adv-x="512" d="M506.9339865538 329.2024774894l-57.065339692287 57.066571699448c-6.7538632568302 6.7538632568302 -17.705174911329 6.7538632568302 -24.459038168159 0L187.69382697037 148.55080345155l-101.10589967804 101.10343566372 c-6.7513992425081 6.7538632568302 -17.703942904168 6.7538632568302 -24.456574153837 0l-57.065339692287 -57.066571699448c-6.7538632568302 -6.7526312496691 -6.7538632568302 -17.703942904168 0 -24.457806160998l170.40014245083 -170.39891044367 c3.3769316284151 -3.3781636355761 7.8035333580376 -5.0660134462032 12.228903080499 -5.0660134462032c4.4266017296226 0 8.8532034592451 1.687849810627 12.228903080499 5.0660134462032L506.9339865538 304.74590333556c3.2438748550226 3.2426428478616 5.0647814390421 7.6421404199412 5.0647814390421 12.227671073338 C512 321.56156907662 510.17786140882 325.95860263438 506.9339865538 329.2024774894z"/><glyph unicode="&#xE002;" glyph-name="digital25" horiz-adv-x="512" d="M475.42052207598 373.50002200995H206.76532992913c3.0088479992957 -11.742395562794 4.530175639389 -23.721442091826 4.530175639389 -36.703437953955v-289.94251001453c0 -10.931020821411 -1.0480257076198 -20.994321433288 -3.2116916846415 -30.922392921601h267.34797728573 c20.216753972796 0 36.556939736761 16.306378483074 36.556939736761 36.5344015495V336.5373949025C511.97746181274 356.76541796892 495.6485451424 373.50002200995 475.42052207598 373.50002200995zM315.73746533433 56.410265439979c-10.852137165999 0 -19.67583747854 8.7898930316503 -19.67583747854 19.66456838491 c0 10.863406259629 8.8011621252806 19.67583747854 19.67583747854 19.67583747854c10.852137165999 0 19.67583747854 -8.8124312189109 19.67583747854 -19.67583747854C335.41330281287 65.211427565259 326.5783334067 56.410265439979 315.73746533433 56.410265439979zM315.73746533433 112.60923537439 c-10.852137165999 0 -19.67583747854 8.8124312189109 -19.67583747854 19.67583747854s8.8011621252806 19.67583747854 19.67583747854 19.67583747854c10.852137165999 0 19.67583747854 -8.8124312189109 19.67583747854 -19.67583747854S326.5783334067 112.60923537439 315.73746533433 112.60923537439zM315.73746533433 168.83074349606c-10.852137165999 0 -19.67583747854 8.7898930316503 -19.67583747854 19.67583747854c0 10.863406259629 8.8011621252806 19.67583747854 19.67583747854 19.67583747854c10.852137165999 0 19.67583747854 -8.8124312189109 19.67583747854 -19.67583747854 C335.41330281287 177.64317471497 326.5783334067 168.83074349606 315.73746533433 168.83074349606zM368.57824536691 55.553814324074c-10.863406259629 0 -19.687106572171 8.7898930316503 -19.687106572171 19.67583747854c0 10.852137165999 8.8124312189109 19.67583747854 19.687106572171 19.67583747854 s19.67583747854 -8.8237003125413 19.67583747854 -19.67583747854C388.25408284545 64.354976449355 379.45292072017 55.553814324074 368.57824536691 55.553814324074zM368.57824536691 111.75278425848c-10.863406259629 0 -19.687106572171 8.8124312189109 -19.687106572171 19.67583747854 s8.8124312189109 19.67583747854 19.687106572171 19.67583747854s19.67583747854 -8.8124312189109 19.67583747854 -19.67583747854C388.25408284545 120.57648457103 379.45292072017 111.75278425848 368.57824536691 111.75278425848zM368.57824536691 167.97429238016 c-10.863406259629 0 -19.687106572171 8.8124312189109 -19.687106572171 19.67583747854s8.8124312189109 19.687106572171 19.687106572171 19.687106572171s19.67583747854 -8.8237003125413 19.67583747854 -19.687106572171S379.45292072017 167.97429238016 368.57824536691 167.97429238016zM422.28674560902 55.553814324074 c-10.87467535326 0 -19.698375665801 8.7898930316503 -19.698375665801 19.67583747854c0 10.852137165999 8.8237003125413 19.67583747854 19.698375665801 19.67583747854c10.852137165999 0 19.67583747854 -8.8237003125413 19.67583747854 -19.67583747854 C441.96258308756 64.354976449355 433.13888277501 55.553814324074 422.28674560902 55.553814324074zM422.28674560902 111.75278425848c-10.87467535326 0 -19.698375665801 8.8124312189109 -19.698375665801 19.67583747854s8.8237003125413 19.67583747854 19.698375665801 19.67583747854 c10.852137165999 0 19.67583747854 -8.8124312189109 19.67583747854 -19.67583747854C441.96258308756 120.57648457103 433.13888277501 111.75278425848 422.28674560902 111.75278425848zM422.28674560902 167.97429238016c-10.87467535326 0 -19.698375665801 8.8124312189109 -19.698375665801 19.67583747854 s8.8237003125413 19.687106572171 19.698375665801 19.687106572171c10.852137165999 0 19.67583747854 -8.8237003125413 19.67583747854 -19.687106572171S433.13888277501 167.97429238016 422.28674560902 167.97429238016zM470.45085178501 277.12673328344 c0 -19.078575516133 -15.483734648061 -34.562310164194 -34.562310164194 -34.562310164194H302.73293128494c-19.067306422503 0 -34.539771976934 15.483734648061 -34.539771976934 34.562310164194v17.56851696967c0 19.089844609764 15.472465554431 34.562310164194 34.539771976934 34.562310164194H435.88854162081 c19.078575516133 0 34.562310164194 -15.472465554431 34.562310164194 -34.562310164194V277.12673328344zM41.684377338557 373.50002200995H36.489325174979C16.272571202183 373.50002200995 0 356.76541796892 0 336.5373949025V52.454813575736c0 -20.216753972796 16.272571202183 -36.5344015495 36.489325174979 -36.5344015495h3.8765682088304 c-2.1523968833913 9.9280714883127 -3.3469208082053 19.980103006559 -3.3469208082053 30.922392921601V336.79658405599C37.018972575604 349.76731082449 38.675529339261 361.75762644715 41.684377338557 373.50002200995zM141.21301228155 401.49245058767H107.23669498613c-20.216753972796 0 -36.816128890258 -29.15314522164 -36.816128890258 -64.695866531672v-289.94251001453c0 -35.531452216402 16.599374917463 -64.335255535502 36.816128890258 -64.335255535502h33.976317295418 c20.216753972796 0 36.669630673064 28.8038033191 36.669630673064 64.335255535502V336.79658405599C177.88264295462 372.3280362724 161.42976625435 401.49245058767 141.21301228155 401.49245058767z"/><glyph unicode="&#xE003;" glyph-name="facebook30" horiz-adv-x="512" d="M424.02362164449 320.56840744547c-1.8224749717517 6.8304124022933 -5.5233728732383 14.108408468453 -8.2612516681624 20.480523768117C383.00067423985 419.78318306309 311.41704757343 448 253.61685506633 448 C176.24082917552 448 91.020185346211 396.1160064541 79.642513380174 289.17088957811v-21.849463165579c0 -0.91183267691821 0.3142608703739 -9.1028518020804 0.76065415215501 -13.200146937789c6.3780672100885 -50.96739934064 46.595125943355 -105.13454572509 76.630846705757 -156.10194506573 c32.314112072613 -54.60639737372 65.844794635841 -108.32357933013 99.064787474949 -162.01814402693c20.484094914372 35.04008704669 40.894386139489 70.540851960178 60.911851276638 104.67386785829c5.4555210944075 10.017065243168 11.788353785276 20.028178575912 17.249826790107 29.589327480621 c3.6401884151644 6.366163389241 10.594400554272 12.732326778482 13.771530338468 18.655668032196c32.312921690529 59.160799229972 84.324286119494 118.77870518049 84.324286119494 177.49073036451v24.119521801197 C432.35748661983 296.89527892605 424.46763416211 319.19589690175 424.02362164449 320.56840744547zM255.03340974718 210.88422139247c-22.744630493311 0 -47.640281413765 11.372910437698 -59.928595674635 42.781141743817 c-1.8308076463449 4.9996047559484 -1.683200267836 15.019050763286 -1.683200267836 15.936835350628v14.108408468453c0 40.039691802638 33.997312340449 58.247776170969 63.573545618138 58.247776170969c36.411407208322 0 64.572276187243 -29.131030377993 64.572276187243 -65.542437586314 C321.56743561009 240.00572871378 291.4448169555 210.88422139247 255.03340974718 210.88422139247z"/><glyph unicode="&#xE004;" glyph-name="facebook55" horiz-adv-x="512" d="M383.98268884658 447.89346982512L317.58775735256 448C242.99532890151 448 194.79042476827 398.54336631191 194.79042476827 321.99610915182v-58.096230870863H128.03329067965c-5.7686089697575 0 -10.43995713825 -4.6766746772365 -10.43995713825 -10.445283646994v-84.174817681512 c0 -5.7686089697575 4.6766746772365 -10.43995713825 10.43995713825 -10.43995713825h66.757134088616v-212.39986267595c0 -5.7686089697575 4.6713481684925 -10.43995713825 10.43995713825 -10.43995713825h87.099070981971c5.7686089697575 0 10.43995713825 4.6766746772365 10.43995713825 10.43995713825V158.8398198142h78.05465913465 c5.7686089697575 0 10.43995713825 4.6713481684925 10.43995713825 10.43995713825l0.03195905246403 84.174817681512c0 2.7697845468826 -1.1025873100091 5.4223859013972 -3.0574160190589 7.382541119191c-1.9548287090499 1.9601552177939 -4.6180830810524 3.0627425278029 -7.387867627935 3.0627425278029H302.76941002674v49.248899847071 c0 23.671004858359 5.6407727599014 35.687608584834 36.475931878947 35.687608584834l44.726693923411 0.015979526232015c5.7632824610135 0 10.434630629506 4.6766746772365 10.434630629506 10.43995713825V437.45351268687C394.4066664586 443.21146863914 389.74064479885 447.88281680763 383.98268884658 447.89346982512z"/><glyph unicode="&#xE005;" glyph-name="menu48" horiz-adv-x="512" d="M462.45161290323 423.22580645161H49.548387096774C22.296774193548 423.22580645161 0 400.92903225806 0 373.67741935484s22.296774193548 -49.548387096774 49.548387096774 -49.548387096774h412.90322580645c27.251612903226 0 49.548387096774 22.296774193548 49.548387096774 49.548387096774S489.70322580645 423.22580645161 462.45161290323 423.22580645161zM462.45161290323 241.54838709677H49.548387096774C22.296774193548 241.54838709677 0 219.25161290323 0 192c0 -27.251612903226 22.296774193548 -49.548387096774 49.548387096774 -49.548387096774h412.90322580645c27.251612903226 0 49.548387096774 22.296774193548 49.548387096774 49.548387096774C512 219.25161290323 489.70322580645 241.54838709677 462.45161290323 241.54838709677zM462.45161290323 59.870967741935H49.548387096774c-27.251612903226 0 -49.548387096774 -22.296774193548 -49.548387096774 -49.548387096774s22.296774193548 -49.548387096774 49.548387096774 -49.548387096774h412.90322580645c27.251612903226 0 49.548387096774 22.296774193548 49.548387096774 49.548387096774S489.70322580645 59.870967741935 462.45161290323 59.870967741935z"/><glyph unicode="&#xE006;" glyph-name="multiple25" horiz-adv-x="512" d="M308.96992387371 333.48528640958c23.673530512917 -14.843079995008 40.273755147885 -39.960663921128 43.296043928616 -69.11648571072c9.6547110944715 -4.5110695120429 20.370098589792 -7.1052539623112 31.730837389242 -7.1052539623112 c41.47500311993 0 75.090777486584 33.615774366654 75.090777486584 75.084387869712c0 41.47500311993 -33.615774366654 75.090777486584 -75.090777486584 75.090777486584C342.91795831773 407.4259328591 309.59610632722 374.41078247847 308.96992387371 333.48528640958zM259.7762635717 179.73832522152 c41.47500311993 0 75.090777486584 33.622163983527 75.090777486584 75.090777486584s-33.622163983527 75.084387869712 -75.090777486584 75.084387869712c-41.468613503058 0 -75.103556720329 -33.622163983527 -75.103556720329 -75.090777486584S218.30765006864 179.73832522152 259.7762635717 179.73832522152 zM291.62850368152 174.62024210658h-63.717259453388c-53.014651191813 0 -96.144565081742 -43.136303506801 -96.144565081742 -96.150954698615v-77.921377761138l0.19807812305004 -1.2204168226632l5.3672781729689 -1.6804692374891 c50.592986397105 -15.807912142768 94.547160863597 -21.079346062648 130.72517159616 -21.079346062648c70.662772993885 0 111.62021714714 20.146461999251 114.14411581181 21.43077499064l5.0158492449769 2.5366778984151h0.53672781729689V78.469287407962 C387.77306876326 131.48393859978 344.64315487333 174.62024210658 291.62850368152 174.62024210658zM415.86182453513 252.13907400474h-63.225258954199c-0.68368900536628 -25.296493198552 -11.48214152003 -48.075477349307 -28.561587420442 -64.458455010608 c47.123424435293 -14.012429801572 81.601797079745 -57.711019593161 81.601797079745 -109.32634468988v-24.012180207163c62.426556845127 2.2874828403844 98.400099837764 19.980331960564 100.77064769749 21.168800698864l5.0158492449769 2.5430675152877h0.53672781729689V156.00089853987 C512 209.00916011481 468.87008611007 252.13907400474 415.86182453513 252.13907400474zM128.01597404218 257.25076750281c14.689729190066 0 28.357119680519 4.2874329215026 39.935105453638 11.590765006864c3.6804193186073 24.005790590291 16.549107699988 44.982902782978 34.932035442406 59.270086110071 c0.076675402470985 1.4057157119681 0.21085735679521 2.7986521901909 0.21085735679521 4.2171471359042c0 41.47500311993 -33.622163983527 75.090777486584 -75.077998252839 75.090777486584c-41.481392736803 0 -75.090777486584 -33.615774366654 -75.090777486584 -75.090777486584 C52.925196555597 290.87293148633 86.534581305379 257.25076750281 128.01597404218 257.25076750281zM195.45199051541 187.68061899413c-16.996380881068 16.299912641957 -27.756495694496 38.957494072133 -28.542418569824 64.100636465743 c-2.3449893922376 0.17251965555972 -4.6644203169849 0.3578185448646 -7.0541370273306 0.3578185448646h-63.710869836516C43.129913889929 252.13907400474 0 209.00916011481 0 156.00089853987v-77.934156994883l0.19807812305004 -1.2012479720454l5.3672781729689 -1.6932484712342 c40.586846374641 -12.67061025833 76.809584425309 -18.51072007987 108.2720579059 -20.350929739174v23.53295894172C113.85019343567 129.96959940097 148.31578684637 173.65540995882 195.45199051541 187.68061899413z"/><glyph unicode="&#xE007;" glyph-name="network11" horiz-adv-x="512" d="M195.57224936735 354.74768824306C195.57224936735 387.93539800417 222.02287100317 414.38601963999 255.05778994445 414.38601963999C287.27986172431 414.38601963999 313.73048336012 387.93539800417 313.73048336012 354.74768824306C313.73048336012 322.67840728303 287.27986172431 296.22778564721 255.05778994445 296.22778564721C222.02287100317 296.22778564721 195.57224936735 322.67840728303 195.57224936735 354.74768824306ZM464.34250608776 190.26429628686l-55.720774776782 11.623306966306c-18.983750059684 3.9766357371361 -37.726090624055 -4.7242921487801 -47.635084592001 -20.192834747179 c-9.6237844376184 4.9432923238529 -19.972815966641 9.2061561967818 -30.980885231812 12.743772978307v33.134217185784c0.022409320240009 25.069917715777 -20.500453597746 45.570371313524 -45.481752638029 45.570371313524h-56.973659499292 c-25.113717750792 0 -45.547961993284 -20.500453597746 -45.547961993284 -45.570371313524v-33.309417325842c-10.898059874903 -3.4714074262705 -21.137082013656 -7.7342712991994 -30.827075806529 -12.699972943292 c-9.9089939679458 15.534751953653 -28.673743852557 24.300870589359 -47.679903232481 20.324234852223l-55.765593417262 -11.623306966306c-24.477089334882 -5.1195110693766 -40.363260174118 -29.398990943961 -35.243749104741 -53.963680348872l13.996657700816 -66.861262752463 c5.075711034362 -24.498480049657 29.376581623721 -40.384650888892 53.876080278843 -35.265139819516l17.643265267145 3.6914262068087c8.8323279909599 -13.051391828874 21.049481943627 -25.026117680763 36.693224682084 -35.265139819516 c32.584170234438 -21.357100794194 75.628399993634 -33.134217185784 121.30776209196 -33.134217185784c69.893651223122 0 130.09730865337 28.102306186437 157.82578663399 68.465566360555l17.929493402938 -3.7576355620633 c24.477089334882 -5.0971017491366 48.777959924241 10.766659769859 53.853670958603 35.265139819516l14.018048415591 66.861262752463C504.72715697665 160.8653053429 488.84098613742 185.14478521749 464.34250608776 190.26429628686zM255.98064649616 -7.7047317407012 c-41.26370740558 0 -79.935063901577 10.392831564037 -108.78400789419 29.398990943961c-9.8876032531712 6.4599958619153 -18.083302828222 13.644220209769 -24.652289474941 21.334691473954l13.512820104725 2.8347790103611 c24.520889369897 5.0971017491366 40.407060209132 29.376581623721 35.287549139756 53.897470993618l-12.546163518009 60.11605736022c7.3166430583629 3.9328357021216 15.007114322548 7.3828524136175 23.180404577358 10.326622208782v-10.964269230157 c0 -25.026117680763 20.478044277506 -45.526571278509 45.547961993284 -45.526571278509h56.973659499292c25.004726965988 0 45.482771243494 20.521844312521 45.482771243494 45.526571278509v11.535706896277 c8.3270996800942 -2.9661791154048 16.148971049323 -6.3723957918862 23.400423357897 -10.239022138753L340.66139326129 99.738791360952c-5.075711034362 -24.520889369897 10.788050484633 -48.800369244481 35.30893985453 -53.897470993618l13.644220209769 -2.8561697251357 C364.17182600945 12.860912606834 313.83336251214 -7.7047317407012 255.98064649616 -7.7047317407012zM392.16310420016 276.15310913403C392.16310420016 309.50277716414 418.61372583597 335.95339879996 452.21397081059 335.95339879996C483.87071655711 335.95339879996 510.32133819293 309.50277716414 510.32133819293 276.15310913403C510.32133819293 244.245786443 483.87071655711 217.79516480718 452.21397081059 217.79516480718C418.61372583597 217.79516480718 392.16310420016 244.245786443 392.16310420016 276.15310913403ZM72.052076204421 217.61996466712c32.342760739126 6.7676147124827 52.997023762156 38.472728430233 46.317009119702 70.794098454585 c-6.8114147474973 32.298960704111 -38.451337715459 53.04082379717 -70.816507774825 46.273209084687c-32.298960704111 -6.7452053922427 -53.04082379717 -38.428928395219 -46.273209084687 -70.75029841957 C8.0255924623196 231.5942130477 39.709315465296 210.87374066941 72.052076204421 217.61996466712z"/><glyph unicode="&#xE008;" glyph-name="surveillance86" horiz-adv-x="512" d="M474.16576146951 384.24586037886c-0.61041197509604 0.12434318011216 -1.1982160992626 0.1921667329006 -1.8199319998234 0.23738243475957l0.011303925464741 0.11303925464741L123.29191504394 448l-0.022607850929483 -0.12434318011216C103.77003576633 448.91561796264 81.173488762308 410.79878129554 72.085132688656 360.71108756127 c-9.0996599991169 -50.076389808805 -2.6338146332848 -93.212169382258 15.983750607144 -99.124122400318l71.463416788096 -13.361239899324v-77.036252042213c0 -4.8945997262331 0.090431403717932 -11.530003974036 -0.40694131673069 -13.044729986312c0 0 -1.3225592793748 -1.966883030865 -6.4658453658321 -5.2111096392458L77.861438601139 108.09096127522 v41.327151499095c0 8.1049145582196 -6.3301982602552 14.751622731488 -14.42380889301 14.751622731488H29.390206208328c-8.1049145582196 0 -14.389897116616 -6.646708173268 -14.389897116616 -14.751622731488v-198.75692144655c0 -8.1049145582196 6.296286483861 -14.66119132777 14.389897116616 -14.66119132777h34.036119574337 c8.1049145582196 0 14.42380889301 6.5562767695501 14.42380889301 14.66119132777v79.36486068795l109.9984986974 65.901885459443c38.828983971387 24.461694705701 39.077670331611 52.608469112907 39.077670331611 75.261535744249v64.794100763898c0 0 212.63814191725 -38.625513313022 213.22594604142 -38.738552567669 c19.894908817945 -3.6511679251115 43.621848368437 35.302159226388 53.004106504173 86.938490749327C502.57252616241 335.84245153884 494.04936636199 380.63990815561 474.16576146951 384.24586037886zM137.29747869475 383.38676204354c-9.0770521481874 1.6390691923875 -15.113348346359 10.331787874774 -13.451671303042 19.442751799355 c1.6503731178523 9.0883560736521 10.320483949309 15.135956197289 19.45405572482 13.462975228507l249.35329182673 -45.306133262684c9.0883560736521 -1.6390691923875 15.113348346359 -10.354395725703 13.429063452113 -19.45405572482c-1.4582063849516 -8.0710027818254 -8.4779440985561 -13.734269439661 -16.424603700269 -13.734269439661 c-0.97213758996777 0 -1.9894908817945 0.10173532918267 -3.0294520245507 0.2712942111538L137.29747869475 383.38676204354zM459.25588378152 289.23636684771c-6.3641100366494 -34.963041462445 -22.404380271118 -61.323795646222 -35.901267276019 -58.859539894909 c-10.320483949309 1.8651477016823 -16.142005563651 20.177506954564 -15.384642557513 44.39051530004c11.439572570318 0.022607850929483 21.590497637656 8.1953459619376 23.715635625028 19.827085265157c2.1251379873714 11.631739303219 -4.4650505585729 22.800017662384 -15.124652271824 26.880734755155 c7.8336203470658 22.540027376694 19.578398904932 37.325561884576 29.808451450523 35.460414182894C459.83238398022 354.51653640659 465.58608204177 324.17680045922 459.25588378152 289.23636684771z"/><glyph unicode="&#xE009;" glyph-name="telephone56" horiz-adv-x="512" d="M448.94758251941 336.24703273539c-0.63361646569105 33.163303914806 -23.122453511127 62.815948177601 -63.52080859996 83.647984273276c-34.932276200599 17.980762000065 -80.767909429225 27.971590051189 -129.08343868147 28.103467162469 c-48.291275990396 0.11217133603143 -94.181479058173 -9.6058075193401 -129.20318916182 -27.413765028762c-41.028939896793 -20.862352672981 -63.734540469966 -50.854542601601 -64.013452981179 -84.516554213086c0 -0.051538181419846 -0.018189946383475 -0.11520299376201 -0.012126630922317 -0.17583614837359 l-0.063664812342163 -23.148222601837c-0.022737432979344 -10.659308580716 8.5902021795961 -19.301048941732 19.249510760313 -19.332881347903l76.205264544704 -0.22889015865873c10.660824409582 -0.025769090709923 19.323786374712 8.5856546930002 19.352587123152 19.251026589178l0.059117325746294 23.161865061625 c0.025769090709923 10.648697778659 19.402609475707 41.163848665804 78.250117683979 41.016813265871c58.83234991962 -0.1606778597207 78.057607418088 -30.07252885848 78.028806669647 -40.736384925792l-0.071243956668611 -23.146706772972 c-0.033348235036371 -10.650213607525 8.5917180084614 -19.298017284002 19.238899958255 -19.335913005634l76.214359517895 -0.21676352773641c10.644150292064 -0.031832406171081 19.322270545846 8.5826230352697 19.348039636556 19.247994931447 C448.92484508643 312.42578211736 448.95516166374 336.03026920765 448.94758251941 336.24703273539zM88.198502526875 266.20361252809l87.348122533447 0l0 -87.352670020043l-86.402245321507 0ZM212.32821247657 266.20361252809l87.342059217986 0l0 -87.352670020043l-86.402245321507 0ZM336.44882745308 266.20361252809l87.357217506639 0l0 -87.352670020043l-86.402245321507 0ZM88.198502526875 144.76601464314l87.348122533447 0l0 -87.352670020043l-86.402245321507 0ZM212.32821247657 144.76601464314l87.342059217986 0l0 -87.352670020043l-86.402245321507 0ZM336.44882745308 144.76601464314l87.357217506639 0l0 -87.352670020043l-86.402245321507 0ZM88.198502526875 23.33751173139l87.348122533447 0l0 -87.33751173139l-86.402245321507 0ZM212.32821247657 23.33751173139l87.342059217986 0l0 -87.33751173139l-86.402245321507 0ZM336.44882745308 23.33751173139l87.357217506639 0l0 -87.33751173139l-86.402245321507 0Z"/><glyph unicode="&#xE00A;" glyph-name="twitter1" horiz-adv-x="512" d="M512 350.73840522876c-18.844444444444 -8.3501176470588 -39.064261437908 -14.013071895425 -60.30891503268 -16.541281045752c21.692235294118 12.989908496732 38.297098039216 33.593725490196 46.167006535948 58.069333333333 c-20.347816993464 -12.029490196078 -42.808052287582 -20.764444444444 -66.739869281046 -25.499607843137c-19.164026143791 20.444026143791 -46.423006535948 33.177934640523 -76.657777777778 33.177934640523c-58.00491503268 0 -105.03613071895 -47.031215686275 -105.03613071895 -105.00433986928 c0 -8.2221176470588 0.9277908496732 -16.252653594771 2.7197908496732 -23.931816993464C164.86483660131 275.39241830065 87.47168627451 317.20826143791 35.673516339869 380.74896732026c-9.0545359477124 -15.485490196078 -14.205490196078 -33.529307189542 -14.205490196078 -52.790379084967 c0 -36.441516339869 18.556653594771 -68.595450980392 46.711633986928 -87.407267973856c-17.213071895425 0.57558169934641 -33.40214379085 5.3107450980392 -47.575006535948 13.181490196078v-1.3117908496732c0 -50.870379084967 36.217307189542 -93.326222222222 84.239895424837 -102.98896732026 c-8.7985359477124 -2.3675816993464 -18.076444444444 -3.6793725490196 -27.67477124183 -3.6793725490196c-6.7823267973856 0 -13.341281045752 0.6717908496732 -19.772235294118 1.9517908496732c13.373071895425 -41.752261437908 52.150379084967 -72.114196078431 98.094013071895 -72.946614379085 c-35.929516339869 -28.154980392157 -81.233150326797 -44.887843137255 -130.43952941176 -44.887843137255c-8.4781176470588 0 -16.829071895425 0.512 -25.051189542484 1.4397908496732c46.487424836601 -29.85077124183 101.67717647059 -47.255424836601 160.99388235294 -47.255424836601 c193.21139869281 0 298.82394771242 160.03430065359 298.82394771242 298.82394771242l-0.3522091503268 13.597281045752C480.10206535948 311.19393464052 497.95430065359 329.68616993464 512 350.73840522876z"/><glyph unicode="&#xE00B;" glyph-name="users6" horiz-adv-x="512" d="M140.52182737329 361.01339004235c0 36.246012647602 29.384580371966 65.630593019568 65.635368515306 65.630593019568c36.246012647602 0 65.633458317011 -29.384580371966 65.633458317011 -65.630593019568s-29.387445669409 -65.629637920421 -65.633458317011 -65.629637920421 C169.90640774526 295.38279702278 140.52182737329 324.76737739474 140.52182737329 361.01339004235zM237.69839013562 250.66983043259c0.65806331262708 14.291148544033 5.5777790213965 27.518316637753 13.492685656724 38.453246777473 c-5.5548566418565 1.1633107616543 -11.295957617475 1.7812599100864 -17.187009159252 1.7812599100864h-55.686100695805c-5.8738597571213 0 -11.60731993956 -0.61317365269461 -17.133523606992 -1.7621579271364c8.4230193817972 -11.682772772213 13.461167384856 -25.950998936706 13.543305911541 -41.396862350066 c10.238662861194 5.6312645736564 21.986382375436 8.8375324118119 34.464752737516 8.8375324118119C219.31464174455 256.58284925476 228.95063704367 254.47399033708 237.69839013562 250.66983043259zM248.80810341933 244.77877889082 c19.063778984088 -11.95497602925 32.432301751637 -32.17538008096 34.877355569235 -55.65744772138c7.7678213666126 -3.6303318596452 16.400007461712 -5.7248642901114 25.545081799019 -5.7248642901114c33.397906989759 0 60.468282127334 27.073240435018 60.468282127334 60.470192325629 c0 33.400772287201 -27.070375137575 60.468282127334 -60.468282127334 60.468282127334C276.13826552502 304.33398623314 249.31048557091 277.7468912642 248.80810341933 244.77877889082zM209.1915458802 120.96354580559 c33.392176394874 0 60.464461730744 27.080881228198 60.464461730744 60.468282127334c0 33.392176394874 -27.07228533587 60.468282127334 -60.464461730744 60.468282127334c-33.395041692316 0 -60.478788217957 -27.075150633313 -60.478788217957 -60.468282127334 C148.71371276139 148.04442703378 175.79650418789 120.96354580559 209.1915458802 120.96354580559zM234.84168858545 116.84802357901h-51.305060906225c-42.69006659578 0 -77.428932788628 -34.736000895405 -77.428932788628 -77.431798086071v-62.752879288153 l0.1633219542224 -0.98279702277688l4.3189583449923 -1.3428694013841c40.742619434029 -12.724785942134 76.138593840357 -16.980707743392 105.27484843397 -16.980707743392c56.896211315686 0 89.888201167758 16.224269218572 91.920652153637 17.262461991904l4.0410244930699 2.0448672747962h0.42883951722723 v62.752879288153C312.25629488686 82.112022683605 277.53748577611 116.84802357901 234.84168858545 116.84802357901zM334.89405488089 179.26948346298h-50.920155949783c-0.55300240640215 -20.374175014457 -9.2482250452366 -38.72162963792 -22.999742570933 -51.909638666592 c37.947999328446 -11.284496427705 65.712731546253 -46.472259219878 65.712731546253 -88.039129218199v-19.335982241125c50.265913033746 1.8509821478538 79.237890573992 16.089600238775 81.146178670696 17.049474882012l4.0419795922174 2.0553733654187h0.42883951722723v62.764340477923 C412.30961628146 144.53825806331 377.57361538605 179.26948346298 334.89405488089 179.26948346298zM348.50517283191 305.62432518141c19.064734083235 -11.956886227545 32.432301751637 -32.178245378402 34.87162497435 -55.660313018822 c7.7687764657601 -3.6303318596452 16.400007461712 -5.7210438935214 25.545081799019 -5.7210438935214c33.404592683791 0 60.473057623072 27.069420038428 60.473057623072 60.461596433302c0 33.401727386349 -27.069420038428 60.468282127334 -60.473057623072 60.468282127334 C375.83437983845 365.1766672263 349.00851008264 338.58384166247 348.50517283191 305.62432518141zM434.5796631037 240.11502975358h-50.90964985916c-0.55300240640215 -20.374175014457 -9.2472699460891 -38.72162963792 -22.998787471785 -51.908683567445 c37.947044229298 -11.280676031115 65.711776447106 -46.473214319025 65.711776447106 -88.040084317347v-19.335982241125c50.261137538008 1.8471617512638 79.23884567314 16.08386964389 81.147133769843 17.050429981159l4.0362489973324 2.0486876713862h0.43457011211222v62.771981271103 C512.00668569403 205.38189415561 477.27068479863 240.11502975358 434.5796631037 240.11502975358zM103.09053668364 183.39551178018c11.829858040927 0 22.829734922678 3.4555487156528 32.158188296305 9.3380043651016 c2.9665379521331 19.332161844535 13.331273900797 36.228820862947 28.131490290447 47.731079896282c0.062081444587461 1.1346577872293 0.16618725166489 2.2549890872461 0.16618725166489 3.4011080642453c0 33.400772287201 -27.078015930755 60.468282127334 -60.455865838417 60.468282127334 c-33.406502882086 0 -60.473057623072 -27.066554740985 -60.473057623072 -60.468282127334C42.61747906057 210.46302162031 69.683078702408 183.39551178018 103.09053668364 183.39551178018zM157.39556401216 127.35984479639 c-13.687525882814 13.124972484937 -22.353140448076 31.372141697913 -22.991146678605 51.62788441808c-1.8825004197213 0.14039957468241 -3.7516294513776 0.28175424851232 -5.6761542335889 0.28175424851232H77.428932788628C34.733135597963 179.26948346298 0 144.53825806331 0 101.84819146753 v-62.758609883038l0.1585464584849 -0.97706642789188l4.3246889398773 -1.3485999962691c32.677762232544 -10.218605779096 61.853175891208 -14.914828287351 87.192911373515 -16.382815677057v18.946301788945 C91.680922267614 80.887585576511 119.43896879139 116.08107896357 157.39556401216 127.35984479639z"/><glyph unicode="&#xE00C;" glyph-name="web42" horiz-adv-x="512" d="M75.899391747493 87.967121486109C34.046358704587 87.967121486109 0 53.962847279303 0 12.067729738616c0 -41.747821798455 34.046358704587 -75.836265000822 75.899391747493 -75.836265000822s75.899391747493 34.067400953477 75.899391747493 75.836265000822 C151.79878349499 53.962847279303 117.7524247904 87.967121486109 75.899391747493 87.967121486109zM7.8908433338813 280.69307907283C3.5561400624692 280.69307907283 0 277.13693901036 0 272.76015124116v-96.331415420023c0 -4.3347032714121 3.5561400624692 -7.869801084991 7.8908433338813 -7.869801084991c123.70738122637 0 224.41558441558 -100.66611869144 224.41558441558 -224.41558441558 c0 -4.3136610225218 3.4930133157981 -7.8908433338813 7.8908433338813 -7.8908433338813h96.394542166694h0.3366759822456c4.3978300180832 0 7.932927831662 3.5771823113595 7.932927831662 7.8908433338813l-0.3787604800263 2.461943120171 C343.09386815716 131.01956271577 192.57866184448 280.69307907283 7.8908433338813 280.69307907283zM511.5581127733 -53.394706559263C510.19036659543 223.24773960217 284.72266973533 447.7895775111 7.8908433338813 447.7895775111C3.5561400624692 447.7895775111 0 444.23343744863 0 439.85664967943v-99.13003452244c0 -4.3557455203025 3.5561400624692 -7.8908433338813 7.8908433338813 -7.8908433338813 c214.33634719711 0 388.69242150255 -174.37711655433 388.69242150255 -388.71346375144c0 -4.3136610225218 3.5350978135788 -7.8908433338813 7.8487588361006 -7.8908433338813h99.17211902022h0.420844977807c4.3136610225218 0 7.9750123294427 3.5771823113595 7.9750123294427 7.8908433338813L511.5581127733 -53.394706559263z"/></font></defs></svg>
